{
  "artists": {
    "href": "https://api.spotify.com/v1/search?query=pokemon&type=artist&market=US&locale=en-US%2Cen%3Bq%3D0.9&offset=0&limit=3",
    "limit": 3,
    "next": "https://api.spotify.com/v1/search?query=pokemon&type=artist&market=US&locale=en-US%2Cen%3Bq%3D0.9&offset=3&limit=3",
    "offset": 0,
    "previous": null,
    "total": 39,
    "items": [
      {
        "external_urls": {
          "spotify": "https://open.spotify.com/artist/6goK4KMSdP4A8lw8jk4ADk"
        },
        "followers": {
          "href": null,
          "total": 265204
        },
        "genres": ["cartoon", "otacore"],
        "href": "https://api.spotify.com/v1/artists/6goK4KMSdP4A8lw8jk4ADk",
        "id": "6goK4KMSdP4A8lw8jk4ADk",
        "images": [
          {
            "url": "https://i.scdn.co/image/ab6761610000e5eb6eeeda2a79c65f45ed9f80b8",
            "height": 640,
            "width": 640
          },
          {
            "url": "https://i.scdn.co/image/ab676161000051746eeeda2a79c65f45ed9f80b8",
            "height": 320,
            "width": 320
          },
          {
            "url": "https://i.scdn.co/image/ab6761610000f1786eeeda2a79c65f45ed9f80b8",
            "height": 160,
            "width": 160
          }
        ],
        "name": "Pokémon",
        "popularity": 51,
        "type": "artist",
        "uri": "spotify:artist:6goK4KMSdP4A8lw8jk4ADk"
      },
      {
        "external_urls": {
          "spotify": "https://open.spotify.com/artist/30WBsGLsPC446ZG8ifvG8P"
        },
        "followers": {
          "href": null,
          "total": 12
        },
        "genres": [],
        "href": "https://api.spotify.com/v1/artists/30WBsGLsPC446ZG8ifvG8P",
        "id": "30WBsGLsPC446ZG8ifvG8P",
        "images": [
          {
            "url": "https://i.scdn.co/image/ab67616d0000b2736012fb706d8f03bc8102d3c0",
            "height": 640,
            "width": 640
          },
          {
            "url": "https://i.scdn.co/image/ab67616d00001e026012fb706d8f03bc8102d3c0",
            "height": 300,
            "width": 300
          },
          {
            "url": "https://i.scdn.co/image/ab67616d000048516012fb706d8f03bc8102d3c0",
            "height": 64,
            "width": 64
          }
        ],
        "name": "Pokémon",
        "popularity": 0,
        "type": "artist",
        "uri": "spotify:artist:30WBsGLsPC446ZG8ifvG8P"
      },
      {
        "external_urls": {
          "spotify": "https://open.spotify.com/artist/2yVJCfszl9OlvOhNAsPjZv"
        },
        "followers": {
          "href": null,
          "total": 387
        },
        "genres": [],
        "href": "https://api.spotify.com/v1/artists/2yVJCfszl9OlvOhNAsPjZv",
        "id": "2yVJCfszl9OlvOhNAsPjZv",
        "images": [
          {
            "url": "https://i.scdn.co/image/ab6761610000e5eba98168dc539fe0c8f729f6f2",
            "height": 640,
            "width": 640
          },
          {
            "url": "https://i.scdn.co/image/ab67616100005174a98168dc539fe0c8f729f6f2",
            "height": 320,
            "width": 320
          },
          {
            "url": "https://i.scdn.co/image/ab6761610000f178a98168dc539fe0c8f729f6f2",
            "height": 160,
            "width": 160
          }
        ],
        "name": "PokemonBagBruh",
        "popularity": 4,
        "type": "artist",
        "uri": "spotify:artist:2yVJCfszl9OlvOhNAsPjZv"
      }
    ]
  }
}