{
  "episodes": {
    "href": "https://api.spotify.com/v1/search?query=pokemon&type=episode&market=US&locale=en-US%2Cen%3Bq%3D0.9&offset=0&limit=3",
    "limit": 3,
    "next": "https://api.spotify.com/v1/search?query=pokemon&type=episode&market=US&locale=en-US%2Cen%3Bq%3D0.9&offset=3&limit=3",
    "offset": 0,
    "previous": null,
    "total": 1000,
    "items": [
      {
        "audio_preview_url": "https://podz-content.spotifycdn.com/audio/clips/5M6IQInH0saUVCn8Gk4zSu/clip_1758850_1819100.mp3",
        "description": "Pikachu and Ash await! - Love, Mrs. Honeybee ❤️🐝😊 💖 Want more Bedtime Stories?💖 Join the Honeybee Library!💖 HoneybeeLibrary.comLISTEN TO:- Hundreds of exclusive Bedtime Stories- Longer Bedtime Stories- No AdvertisementsJoin my Private Podcast & listen with your favorite podcast app!HoneybeeLibrary.com____________________Request a story: https://bit.ly/3nmr7VS ____________________My name is Mrs. Honeybee and my mission is to make bedtime easier! 😊💕 I write bedtime stories inspired by movies & video games that I love. Lion King, Frozen, Minecraft, The Avengers, and Toy Story are some of my most popular! - Love, Mrs. Honeybee 😊💕P.S. My little trick….is to weave mindfulness and meditation techniques into all of my bedtime stories!___________________😊 Order a PERSONALIZED STORY😊 Mrs. Honeybee will read a story to you, using your name!😊 HoneybeeHello.com___________________💖 Unlock “The Secret Stories”💖 https://bit.ly/3jxIG2W ________________________Send Mrs. Honeybee a message:https://HoneybeeLibrary.com/send ________________________😊 Visit the Honeybee Gift Shop for more treats!😊 HoneybeeHello.com________________________Honeybee Kids Podcast with Mrs. Honeybee creates bedtime stories and relaxing music for kids! All of my stories include elements of mindfulness and meditation because I believe a great day starts the night before, at bedtime! My podcast is full of relaxing bedtime stories for kids to enjoy!My stories and meditations for children are great for: Bedtime, Sleep, Anxiety, Stress, Worry, Relaxation and expanding the imagination! I make: Guided Meditation, Relaxing Music, Kids Meditation, Guided Meditation for Children, Kids Relaxation, Bedtime Stories, Sleep Meditation for Children, Mindfulness for kids, Kids Meditation for anxiety and depression, Sleep Talk-down, Sleep Meditation, Hypnosis, Guided Imagery, Guided Visualization, Kids Bedtime, Bedtime, Children Bedtime Stories, Kids Bedtime Stories, Meditation and Relaxation for Kids and Adults of all ages.This story is about: Pokemon, pikachu, ash ketchum, charizard, go, masters, poke, mon, Pocket Monsters, Nintendo, anime, video game, trading card game, charmander, professor oak, movie, Pokemon, Pikachu, a pokemon adventure, pokemon audio adventure, pokemon sleep story, pokemon bedtime story, pokemon for adults, pokemon for grown ups, pokemon stories, pikachu and ash, pokemon bedtime stories, pokemon go, pokemon sleep, pokemon go app, pokemon sleep app Sometimes referred to as: ASMR, ASMR for kids, ASMR children, ASMR sleep, ASMR bedtime, ASMR for bedtime, ASMR child, sleep meditation for kids,kids sleep meditation,kids meditation sleep,kids sleep,sleep story,bedtime story,kids bedtime meditation,meditation for kids,meditation for kids sleep,sleep stories, sleep stories for kids, children sleep music, children sleep stories, sleep music kids, kids meditation,kids guided meditation,kids meditation guided,guided meditation,sleep meditation,childrens meditation,guided meditation for kids,kids,children,meditation,bedtime meditation, kids yoga,yoga for kids, yoga for children, kid meditation app, kids sleep app, childrens sleep app, guided imagery for kids,guided visualization for kids,kids meditation,kids relaxation,new horizon, custom bedtime story, kids with anxiety, bedtime anxiety, kids depression, Autism relaxation, autism bedtime story, autism sleep relief, autism meditation for kids, autism bedtime, calm kids app, kids calming app, kid meditation app, bedtime stories for kids, sleep stories, goodnight children, sleep story Sometimes referred to as: ASMR, ASMR for kids, ASMR children, ASMR sleep, ASMR bedtime, ASMR for bedtime, ASMR child, sleep meditation for kids,kids sleep meditation,kids meditation sleep,kids sleep,sleep story,bedtime story,kids bedtime meditation,meditation for kids,meditation for kids sleep,sleep stories, sleep stories for kids, children sleep music, children sleep stories, sleep music kids, kids meditation,kids guided meditation,kids meditation guided,guided meditation,sleep meditation,childrens meditation,guided meditation for kids,kids,children,meditation,bedtime meditation, kids yoga,yoga for kids, yoga for children, kid meditation app, kids sleep app, childrens sleep app, guided imagery for kids,guided visualization for kids,kids meditation,kids relaxation,new horizon, custom bedtime story, kids with anxiety, bedtime anxiety, kids depression, Autism relaxation, autism bedtime story, autism sleep relief, autism meditation for kids, autism bedtime, calm kids app, kids calming app, kid meditation app, bedtime stories for kids, sleep stories, goodnight children, sleep story",
        "html_description": "Pikachu and Ash await! - Love, Mrs. Honeybee ❤️&#x1f41d;&#x1f60a; <br /><br />&#x1f496; Want more Bedtime Stories?<br /><br />&#x1f496; Join the Honeybee Library!<br />&#x1f496; HoneybeeLibrary.com<br /><br />LISTEN TO:<br />- Hundreds of exclusive Bedtime Stories<br />- Longer Bedtime Stories<br />- No Advertisements<br /><br />Join my Private Podcast &amp; listen with your favorite podcast app!<br />HoneybeeLibrary.com<br />____________________<br /><br />Request a story: <a href=\"https://bit.ly/3nmr7VS\" rel=\"nofollow\">https://bit.ly/3nmr7VS</a> <br />____________________<br /><br />My name is Mrs. Honeybee and my mission is to make bedtime easier! &#x1f60a;&#x1f495; I write bedtime stories inspired by movies &amp; video games that I love. Lion King, Frozen, Minecraft, The Avengers, and Toy Story are some of my most popular! <br /><br />- Love, Mrs. Honeybee &#x1f60a;&#x1f495;<br /><br />P.S. My little trick….is to weave mindfulness and meditation techniques into all of my bedtime stories!<br />___________________<br /><br />&#x1f60a; Order a PERSONALIZED STORY<br />&#x1f60a; Mrs. Honeybee will read a story to you, using your name!<br />&#x1f60a; HoneybeeHello.com<br />___________________<br /><br />&#x1f496; Unlock “The Secret Stories”<br />&#x1f496; <a href=\"https://bit.ly/3jxIG2W\" rel=\"nofollow\">https://bit.ly/3jxIG2W</a> <br />________________________<br /><br />Send Mrs. Honeybee a message:<br /><a href=\"https://HoneybeeLibrary.com/send\" rel=\"nofollow\">https://HoneybeeLibrary.com/send</a> <br />________________________<br /><br />&#x1f60a; Visit the Honeybee Gift Shop for more treats!<br />&#x1f60a; HoneybeeHello.com<br />________________________<br /><br />Honeybee Kids Podcast with Mrs. Honeybee creates bedtime stories and relaxing music for kids! All of my stories include elements of mindfulness and meditation because I believe a great day starts the night before, at bedtime! My podcast is full of relaxing bedtime stories for kids to enjoy!<br /><br />My stories and meditations for children are great for: Bedtime, Sleep, Anxiety, Stress, Worry, Relaxation and expanding the imagination!<br /> <br />I make: Guided Meditation, Relaxing Music, Kids Meditation, Guided Meditation for Children, Kids Relaxation, Bedtime Stories, Sleep Meditation for Children, Mindfulness for kids, Kids Meditation for anxiety and depression, Sleep Talk-down, Sleep Meditation, Hypnosis, Guided Imagery, Guided Visualization, Kids Bedtime, Bedtime, Children Bedtime Stories, Kids Bedtime Stories, Meditation and Relaxation for Kids and Adults of all ages.<br /><br />This story is about: Pokemon, pikachu, ash ketchum, charizard, go, masters, poke, mon, Pocket Monsters, Nintendo, anime, video game, trading card game, charmander, professor oak, movie, Pokemon, Pikachu, a pokemon adventure, pokemon audio adventure, pokemon sleep story, pokemon bedtime story, pokemon for adults, pokemon for grown ups, pokemon stories, pikachu and ash, pokemon bedtime stories, pokemon go, pokemon sleep, pokemon go app, pokemon sleep app<br /> <br />Sometimes referred to as: ASMR, ASMR for kids, ASMR children, ASMR sleep, ASMR bedtime, ASMR for bedtime, ASMR child, sleep meditation for kids,kids sleep meditation,kids meditation sleep,kids sleep,sleep story,bedtime story,kids bedtime meditation,meditation for kids,meditation for kids sleep,sleep stories, sleep stories for kids, children sleep music, children sleep stories, sleep music kids, kids meditation,kids guided meditation,kids meditation guided,guided meditation,sleep meditation,childrens meditation,guided meditation for kids,kids,children,meditation,bedtime meditation, kids yoga,yoga for kids, yoga for children, kid meditation app, kids sleep app, childrens sleep app, guided imagery for kids,guided visualization for kids,kids meditation,kids relaxation,new horizon, custom bedtime story, kids with anxiety, bedtime anxiety, kids depression, Autism relaxation, autism bedtime story, autism sleep relief, autism meditation for kids, autism bedtime, calm kids app, kids calming app, kid meditation app, bedtime stories for kids, sleep stories, goodnight children, sleep story<br /> <br />Sometimes referred to as: ASMR, ASMR for kids, ASMR children, ASMR sleep, ASMR bedtime, ASMR for bedtime, ASMR child, sleep meditation for kids,kids sleep meditation,kids meditation sleep,kids sleep,sleep story,bedtime story,kids bedtime meditation,meditation for kids,meditation for kids sleep,sleep stories, sleep stories for kids, children sleep music, children sleep stories, sleep music kids, kids meditation,kids guided meditation,kids meditation guided,guided meditation,sleep meditation,childrens meditation,guided meditation for kids,kids,children,meditation,bedtime meditation, kids yoga,yoga for kids, yoga for children, kid meditation app, kids sleep app, childrens sleep app, guided imagery for kids,guided visualization for kids,kids meditation,kids relaxation,new horizon, custom bedtime story, kids with anxiety, bedtime anxiety, kids depression, Autism relaxation, autism bedtime story, autism sleep relief, autism meditation for kids, autism bedtime, calm kids app, kids calming app, kid meditation app, bedtime stories for kids, sleep stories, goodnight children, sleep story",
        "duration_ms": 2047137,
        "explicit": false,
        "external_urls": {
          "spotify": "https://open.spotify.com/episode/34n7jyTljm8HW6FSz3JC7y"
        },
        "href": "https://api.spotify.com/v1/episodes/34n7jyTljm8HW6FSz3JC7y",
        "id": "34n7jyTljm8HW6FSz3JC7y",
        "images": [
          {
            "url": "https://i.scdn.co/image/9326cc3dd48bb0216762d61d22247b70e0503c83",
            "height": 640,
            "width": 640
          },
          {
            "url": "https://i.scdn.co/image/73ecf9d205422b4e150928a5ab16d82d17aad9f0",
            "height": 300,
            "width": 300
          },
          {
            "url": "https://i.scdn.co/image/0989527ea55cd8e2115c5fa57bb984a1048e76c7",
            "height": 64,
            "width": 64
          }
        ],
        "is_externally_hosted": false,
        "is_playable": true,
        "language": "en",
        "languages": ["en"],
        "name": "Pokemon - Bedtime Story",
        "release_date": "2020-03-15",
        "release_date_precision": "day",
        "type": "episode",
        "uri": "spotify:episode:34n7jyTljm8HW6FSz3JC7y"
      },
      {
        "audio_preview_url": "https://podz-content.spotifycdn.com/audio/clips/1E24Tzq1j4S72UJZSzoJVj/clip_869000_924000.mp3",
        "description": "by Simcha Whitehall Ash embarks on an epic island challenge to prove himself and help the island of Alola in the process. Story starts at ~3:03 If you'd like to support the podcast, you can ⁠⁠⁠⁠⁠⁠donate via PayPal here⁠⁠⁠⁠⁠⁠.  If you are interested in purchasing this book, please consider using one of our affiliate links below to help support the podcast (we earn a small commission from each purchase at no extra cost to you): ⁠⁠⁠Purchase at Amazon⁠⁠⁠ (legal disclosure: As an Amazon Associate we earn from qualifying purchases)  ---   Send in a voice message: https://podcasters.spotify.com/pod/show/read-along-with-miles/message",
        "html_description": "<p>by Simcha Whitehall</p><br/><p>Ash embarks on an epic island challenge to prove himself and help the island of Alola in the process.</p><br/><p>Story starts at ~3:03</p><br/><p>If you&#39;d like to support the podcast, you can <a href=\"https://www.paypal.com/donate/?hosted_button_id&#61;YQA424J5SXASG\" rel=\"nofollow\">⁠⁠⁠⁠⁠⁠donate via PayPal here⁠⁠⁠⁠⁠⁠</a>. </p><br/><p>If you are interested in purchasing this book, please consider using one of our affiliate links below to help support the podcast (we earn a small commission from each purchase at no extra cost to you):</p><br/><p><a href=\"https://amzn.to/3UnIxT5\" rel=\"nofollow\">⁠⁠⁠Purchase at Amazon⁠⁠⁠</a> (legal disclosure: As an Amazon Associate we earn from qualifying purchases)</p><br/>--- <br/>Send in a voice message: https://podcasters.spotify.com/pod/show/read-along-with-miles/message",
        "duration_ms": 1203652,
        "explicit": false,
        "external_urls": {
          "spotify": "https://open.spotify.com/episode/73JQ4xxm6o11lRlT1l4Lb1"
        },
        "href": "https://api.spotify.com/v1/episodes/73JQ4xxm6o11lRlT1l4Lb1",
        "id": "73JQ4xxm6o11lRlT1l4Lb1",
        "images": [
          {
            "url": "https://i.scdn.co/image/ab6765630000ba8a424efa38993c902cf7add046",
            "height": 640,
            "width": 640
          },
          {
            "url": "https://i.scdn.co/image/ab67656300005f1f424efa38993c902cf7add046",
            "height": 300,
            "width": 300
          },
          {
            "url": "https://i.scdn.co/image/ab6765630000f68d424efa38993c902cf7add046",
            "height": 64,
            "width": 64
          }
        ],
        "is_externally_hosted": false,
        "is_playable": true,
        "language": "en",
        "languages": ["en"],
        "name": "Pokemon Story: Ash's Epic Island Challenge",
        "release_date": "2023-04-11",
        "release_date_precision": "day",
        "type": "episode",
        "uri": "spotify:episode:73JQ4xxm6o11lRlT1l4Lb1"
      },
      {
        "audio_preview_url": "https://podz-content.spotifycdn.com/audio/clips/4enB9hlOtvdC41qrbh1JFg/clip_278181_352046.mp3",
        "description": "0:00 Intro 0:09 Per message 7:35 Boss from hell Learn more about your ad choices. Visit megaphone.fm/adchoices",
        "html_description": "<p>0:00 Intro</p><p>0:09 Per message</p><p>7:35 Boss from hell</p><p> </p><p>Learn more about your ad choices. Visit <a href=\"https://megaphone.fm/adchoices\" rel=\"nofollow\">megaphone.fm/adchoices</a></p>",
        "duration_ms": 899056,
        "explicit": false,
        "external_urls": {
          "spotify": "https://open.spotify.com/episode/52Y4MRlvT6E5ynKAeo1s4T"
        },
        "href": "https://api.spotify.com/v1/episodes/52Y4MRlvT6E5ynKAeo1s4T",
        "id": "52Y4MRlvT6E5ynKAeo1s4T",
        "images": [
          {
            "url": "https://i.scdn.co/image/ab6765630000ba8a169eb6511a255e01ed31b16f",
            "height": 640,
            "width": 640
          },
          {
            "url": "https://i.scdn.co/image/ab67656300005f1f169eb6511a255e01ed31b16f",
            "height": 300,
            "width": 300
          },
          {
            "url": "https://i.scdn.co/image/ab6765630000f68d169eb6511a255e01ed31b16f",
            "height": 64,
            "width": 64
          }
        ],
        "is_externally_hosted": false,
        "is_playable": true,
        "language": "en",
        "languages": ["en"],
        "name": "r/Prorevenge I Stole My Bully's $40,000 Pokemon Card Collection",
        "release_date": "2023-11-06",
        "release_date_precision": "day",
        "type": "episode",
        "uri": "spotify:episode:52Y4MRlvT6E5ynKAeo1s4T"
      }
    ]
  }
}